12 Comparisons – Yet Another R Dataviz Book
…
milk_compare_toomany <- milk_production %>%
  filter(
    year %in% c(1970, 2017),
    state %in% top10states
  ) %>%
  mutate(
    milk_produced = milk_produced / 10^9,
    state = fct_reorder(state, milk_produced)
  )

milk_compare_toomany

#> # A tibble: 20 × 4
#>   region          state         year milk_produced
#>   <chr>           <fct>        <dbl>         <dbl>
#> 1 Northeast       New York      1970         10.3 
#> 2 Northeast       Pennsylvania  1970          7.12
#> 3 Lake States     Michigan      1970          4.60
#> 4 Lake States     Wisconsin     1970         18.4 
#> 5 Lake States     Minnesota     1970          9.64
#> 6 Southern Plains Texas         1970          3.06
#> # ℹ 14 more rows
…
milk_summary_dumbbell

#> # A tibble: 20 × 4
#>   region          state        year  milk_produced
#>   <chr>           <fct>        <fct>         <dbl>
#> 1 Northeast       New York     1970          10.3 
#> 2 Northeast       Pennsylvania 1970           7.12
#> 3 Lake States     Michigan     1970           4.60
#> 4 Lake States     Wisconsin    1970          18.4 
#> 5 Lake States     Minnesota    1970           9.64
#> 6 Southern Plains Texas        1970           3.06
#> # ℹ 14 more rows
…
    # Reorder state variables
    state = fct_reorder2(state, year, desc(milk_produced)),
    # Convert year to discrete variable
    year = as.factor(year),
    # Modify units
    milk_produced = milk_produced / 10^9,
    # Define line color
    lineColor = if_else(state == 'California', 'CA', 'other'),
    # Make labels
    label = paste(state, ' (', round(milk_produced), ')'),
    label_left = ifelse(year == 1970, label, NA),
    label_right = ifelse(year == 2017, label, NA)
  )

#> # A tibble: 20 × 5
#>   state        year  milk_produced label               lineColor
#>   <fct>        <fct>         <dbl> <chr>               <chr>    
#> 1 New York     1970          10.3  New York  ( 10 )    other    
#> 2 Pennsylvania 1970           7.12 Pennsylvania  ( 7 ) other    
#> 3 Michigan     1970           4.60 Michigan  ( 5 )     other    
#> 4 Wisconsin    1970          18.4  Wisconsin  ( 18 )   other    
#> 5 Minnesota    1970           9.64 Minnesota  ( 10 )   other    
#> 6 Texas        1970           3.06 Texas  ( 3 )        other    
#> # ℹ 14 more rows
…
