7 Summarizing Data – Yet Another R Dataviz Book
…
7.3.3 Summarizing Ordinal data

Summarize: Counts / percentages

wildlife_impacts %>%
  count(incident_month, sort = TRUE) %>%
  mutate(p = n / sum(n))

#> # A tibble: 12 × 3
#>   incident_month     n      p
#>            <dbl> <int>  <dbl>
#> 1              9  7980 0.140 
#> 2             10  7754 0.136 
#> 3              8  7104 0.125 
#> 4              5  6161 0.108 
#> 5              7  6133 0.108 
#> 6              6  4541 0.0797
#> # ℹ 6 more rows
…
7.4.1 Two Categorical Variables

Summarize with a table of counts

wildlife_impacts %>%
  count(operator, time_of_day)

#> # A tibble: 20 × 3
#>   operator          time_of_day     n
#>   <chr>             <chr>       <int>
#> 1 AMERICAN AIRLINES Dawn          458
#> 2 AMERICAN AIRLINES Day          7809
#> 3 AMERICAN AIRLINES Dusk          584
#> 4 AMERICAN AIRLINES Night        3710
#> 5 AMERICAN AIRLINES <NA>         2326
#> 6 DELTA AIR LINES   Dawn          267
#> # ℹ 14 more rows
…
