3 Tidy Data – Yet Another R Dataviz Book
…
3.4.1 Example 1: Total R&D spending in each year

This is a simple enough task, but with our data in wide format, we need to add each column manually like this:

fed_spend_wide %>%
  mutate(total = DHS + DOC + DOD + DOE + DOT + EPA + HHS + Interior + NASA + NIH + NSF + Other + USDA + VA) %>%
  select(year, total)

#> # A tibble: 42 × 2
#>    year total
#>   <dbl> <dbl>
#> 1  1976 86227
#> 2  1977 91807
#> 3  1978 94864
#> 4  1979 96601
#> 5  1980 96305
#> 6  1981 98304
#> # ℹ 36 more rows
…
Now that our data is in long format, we can use the group_by() and summarise() functions to compute the total R&D spending in each year:

fed_spend_long %>%
  group_by(year) %>%
  summarise(total = sum(rd_budget_mil))

#> # A tibble: 42 × 2
#>    year total
#>   <dbl> <dbl>
#> 1  1976 86227
#> 2  1977 91807
#> 3  1978 94864
#> 4  1979 96601
#> 5  1980 96305
#> 6  1981 98304
#> # ℹ 36 more rows
…
